{
  "primitive_family": "UNSUPERVISED",
  "template": "unsupervised.template",
  "test_template": "unsupervised.test.template",
  "KMeans": {
    "class_name": "sklearn.cluster.k_means_.KMeans",
    "algorithm_types": [
      "K_MEANS_CLUSTERING"
    ],
    "primitive_family": "CLASSIFICATION",
    "Hyperparams": [
      {
        "type": "Bounded",
        "name": "n_clusters",
        "init_args": {
          "default": 8,
          "semantic_types": [
            "n_clusters"
          ],
          "_structural_type": "int",
          "lower": 1,
          "upper": "None"
        }
      },
      {
        "type": "Union",
        "name": "init",
        "hyperparams": [
          {
            "init_args": {
              "default": "'k-means++'",
              "values": [
                "k-means++",
                "random"
              ],
              "description": "''"
            },
            "name": "str",
            "type": "Enumeration"
          },
          {
            "init_args": {
              "default": "ndarray((1,1))",
              "description": "''"
            },
            "name": "ndarray",
            "type": "Hyperparameter"
          }
        ],
        "init_args": {
          "default": "str",
          "semantic_types": [
            "init"
          ],
          "_structural_type": "Union"
        }
      },
      {
        "type": "Bounded",
        "name": "n_init",
        "init_args": {
          "default": 10,
          "semantic_types": [
            "n_init"
          ],
          "_structural_type": "int",
          "lower": 1,
          "upper": "None"
        }
      },
      {
        "type": "Bounded",
        "name": "max_iter",
        "init_args": {
          "default": 300,
          "semantic_types": [
            "max_iter"
          ],
          "_structural_type": "int",
          "lower": 10,
          "upper": "None"
        }
      },
      {
        "type": "Bounded",
        "name": "tol",
        "init_args": {
          "default": 0.0001,
          "semantic_types": [
            "tol"
          ],
          "_structural_type": "float",
          "lower": 0,
          "upper": "None"
        }
      },
      {
        "type": "Union",
        "name": "precompute_distances",
        "hyperparams": [
          {
            "init_args": {
              "default": "'auto'",
              "description": "''"
            },
            "name": "str",
            "type": "Hyperparameter"
          },
          {
            "init_args": {
              "default": "True",
              "description": "''"
            },
            "name": "bool",
            "type": "Hyperparameter"
          }
        ],
        "init_args": {
          "default": "str",
          "semantic_types": [
            "precompute_distances"
          ],
          "_structural_type": "Union"
        }
      },
      {
        "type": "Bounded",
        "name": "verbose",
        "init_args": {
          "default": 0,
          "semantic_types": [
            "verbose"
          ],
          "_structural_type": "int",
          "lower": 0,
          "upper": "None"
        }
      },
      {
        "type": "Bounded",
        "name": "n_jobs",
        "init_args": {
          "default": 1,
          "semantic_types": [
            "n_jobs"
          ],
          "_structural_type": "int",
          "lower": -2,
          "upper": "None"
        }
      },
      {
        "type": "Enumeration",
        "name": "algorithm",
        "init_args": {
          "default": "auto",
          "values": [
            "auto",
            "full",
            "elkan"
          ],
          "semantic_types": [
            "algorithm"
          ],
          "_structural_type": "str"
        }
      }
    ]
  },
  "MiniBatchKMeans": {
    "class_name": "sklearn.cluster.k_means_.MiniBatchKMeans",
    "algorithm_types": [
      "K_MEANS_CLUSTERING"
    ],
    "primitive_family": "UNSUPERVISED",
    "Hyperparams": [
      {
        "type": "Bounded",
        "name": "n_clusters",
        "init_args": {
          "default": 8,
          "semantic_types": [
            "n_clusters"
          ],
          "_structural_type": "int",
          "lower": 1,
          "upper": "None"
        }
      },
      {
        "type": "Union",
        "name": "init",
        "hyperparams": [
          {
            "init_args": {
              "default": "'k-means++'",
              "values": [
                "k-means++",
                "random"
              ],
              "description": "''"
            },
            "name": "str",
            "type": "Enumeration"
          },
          {
            "init_args": {
              "default": "ndarray((1,1))",
              "description": "''"
            },
            "name": "ndarray",
            "type": "Hyperparameter"
          }
        ],
        "init_args": {
          "default": "str",
          "semantic_types": [
            "init"
          ],
          "_structural_type": "Union"
        }
      },
      {
        "type": "Bounded",
        "name": "max_iter",
        "init_args": {
          "default": 100,
          "semantic_types": [
            "max_iter"
          ],
          "_structural_type": "int",
          "lower": 1,
          "upper": "None"
        }
      },
      {
        "type": "Bounded",
        "name": "batch_size",
        "init_args": {
          "default": 100,
          "semantic_types": [
            "batch_size"
          ],
          "_structural_type": "int",
          "lower": 10,
          "upper": "None"
        }
      },
      {
        "type": "Hyperparameter",
        "name": "verbose",
        "init_args": {
          "default": "True",
          "semantic_types": [
            "verbose"
          ],
          "_structural_type": "bool"
        }
      },
      {
        "type": "Hyperparameter",
        "name": "compute_labels",
        "init_args": {
          "default": "True",
          "semantic_types": [
            "compute_labels"
          ],
          "_structural_type": "bool"
        }
      },
      {
        "type": "Bounded",
        "name": "tol",
        "init_args": {
          "default": 0.0,
          "semantic_types": [
            "tol"
          ],
          "_structural_type": "float",
          "lower": 0.0,
          "upper": "None"
        }
      },
      {
        "type": "Bounded",
        "name": "max_no_improvement",
        "init_args": {
          "default": 10,
          "semantic_types": [
            "max_no_improvement"
          ],
          "_structural_type": "int",
          "lower": 1,
          "upper": "None"
        }
      },
      {
        "type": "Bounded",
        "name": "init_size",
        "init_args": {
          "default": 3,
          "semantic_types": [
            "init_size"
          ],
          "_structural_type": "int",
          "lower": 1,
          "upper": "None"
        }
      },
      {
        "type": "Bounded",
        "name": "n_init",
        "init_args": {
          "default": 3,
          "semantic_types": [
            "n_init"
          ],
          "_structural_type": "int",
          "lower": 1,
          "upper": "None"
        }
      },
      {
        "type": "Bounded",
        "name": "reassignment_ratio",
        "init_args": {
          "default": 0.01,
          "semantic_types": [
            "reassignment_ratio"
          ],
          "_structural_type": "float",
          "lower": 0,
          "upper": "None"
        }
      }
    ]
  },
  "GaussianMixture": {
    "class_name": "sklearn.mixture.gaussian_mixture.GaussianMixture",
    "algorithm_types": ["GAUSSIAN_PROCESS"],
    "primitive_family": "UNSUPERVISED",
    "Hyperparams": [
      {
        "type": "Bounded",
        "name": "n_components",
        "init_args": {
          "default": 1,
          "semantic_types": [
            "n_components"
          ],
          "_structural_type": "int",
          "lower": 0,
          "upper": "None"
        }
      },
      {
        "type": "Enumeration",
        "name": "covariance_type",
        "init_args": {
          "default": "full",
          "values": [
            "full",
            "tied",
            "diag",
            "spherical"
          ],
          "semantic_types": [
            "covariance_type"
          ],
          "_structural_type": "str"
        }
      },
      {
        "type": "Bounded",
        "name": "tol",
        "init_args": {
          "default": 1e-3,
          "semantic_types": [
            "tol"
          ],
          "_structural_type": "float",
          "lower": 0,
          "upper": "None"
        }
      },
      {
        "type": "Bounded",
        "name": "reg_covar",
        "init_args": {
          "default": 1e-6,
          "semantic_types": [
            "reg_covar"
          ],
          "_structural_type": "float",
          "lower": 0,
          "upper": "None"
        }
      },
      {
        "type": "Bounded",
        "name": "max_iter",
        "init_args": {
          "default": 100,
          "semantic_types": [
            "max_iter"
          ],
          "_structural_type": "int",
          "lower": 1,
          "upper": "None"
        }
      },
      {
        "type": "Bounded",
        "name": "n_init",
        "init_args": {
          "default": 1,
          "semantic_types": [
            "n_init"
          ],
          "_structural_type": "int",
          "lower": 1,
          "upper": "None"
        }
      },
      {
        "type": "Enumeration",
        "name": "init_params",
        "init_args": {
          "default": "kmeans",
          "values": [
            "kmeans",
            "random"
          ],
          "semantic_types": [
            "init_params"
          ],
          "_structural_type": "str"
        }
      },
      {
        "type": "Union",
        "name": "weights_init",
        "hyperparams": [
          {
            "type": "Hyperparameter",
            "name": "array",
            "init_args": {
              "default": "ndarray((1,1))",
              "_structural_type": "ndarray"
            }
          },
          {
            "type": "Hyperparameter",
            "name": "none",
            "init_args": {
              "default": "None",
              "_structural_type": "None"
            }
          }
        ],
        "init_args": {
          "default": "none",
          "semantic_types": [
            "weights_init"
          ],
          "_structural_type": "Union"
        }
      },
      {
        "type": "Union",
        "name": "means_init",
        "hyperparams": [
          {
            "type": "Hyperparameter",
            "name": "array",
            "init_args": {
              "default": "ndarray((1,1))",
              "_structural_type": "ndarray"
            }
          },
          {
            "type": "Hyperparameter",
            "name": "none",
            "init_args": {
              "default": "None",
              "_structural_type": "None"
            }
          }
        ],
        "init_args": {
          "default": "none",
          "semantic_types": [
            "means_init"
          ],
          "_structural_type": "Union"
        }
      },
      {
        "type": "Union",
        "name": "precisions_init",
        "hyperparams": [
          {
            "type": "Hyperparameter",
            "name": "array",
            "init_args": {
              "default": "ndarray((1,1))",
              "_structural_type": "ndarray"
            }
          },
          {
            "type": "Hyperparameter",
            "name": "none",
            "init_args": {
              "default": "None",
              "_structural_type": "None"
            }
          }
        ],
        "init_args": {
          "default": "none",
          "semantic_types": [
            "precisions_int"
          ],
          "_structural_type": "Union"
        }
      },
      {
        "type": "Hyperparameter",
        "name": "warm_start",
        "init_args": {
          "default": "False",
          "semantic_types": [
            "warm_start"
          ],
          "_structural_type": "bool"
        }
      },
      {
        "type": "Bounded",
        "name": "verbose",
        "init_args": {
          "default": 0,
          "semantic_types": [
            "verbose"
          ],
          "_structural_type": "int",
          "lower": 0,
          "upper": "None"
        }
      },
      {
        "type": "Bounded",
        "name": "verbose_interval",
        "init_args": {
          "default": 10,
          "semantic_types": [
            "verbose_interval"
          ],
          "_structural_type": "int",
          "lower": 1,
          "upper": "None"
        }
      }
    ]
  }
}