{
  "handles_regression": false,
  "is_class": true,
  "library": "sklearn",
  "compute_resources": {},
  "common_name": "Quadratic Discriminant Analysis",
  "id": "1aec0a1f-41e8-303a-8042-463ca92d8948",
  "handles_classification": true,
  "category": "discriminant_analysis",
  "source_code_unanalyzed": "https://github.com/scikit-learn/scikit-learn/blob/0.18.X/sklearn/discriminant_analysis.py#L549",
  "parameters": [
    {
      "type": "array",
      "shape": "n_classes",
      "optional": "true",
      "name": "priors",
      "description": "Priors on classes "
    },
    {
      "type": "float",
      "optional": "true",
      "name": "reg_param",
      "description": "Regularizes the covariance estimate as ``(1-reg_param)*Sigma + reg_param*np.eye(n_features)`` "
    },
    {
      "type": "boolean",
      "name": "store_covariance",
      "description": "If True the covariance matrices are computed and stored in the `self.covariance_` attribute.  .. versionadded:: 0.17 "
    },
    {
      "type": "float",
      "optional": "true",
      "name": "tol",
      "description": "Threshold used for rank estimation.  .. versionadded:: 0.17 "
    }
  ],
  "input_type": [
    "DENSE",
    "UNSIGNED_DATA"
  ],
  "methods_available": [
    {
      "id": "sklearn.discriminant_analysis.QuadraticDiscriminantAnalysis.decision_function",
      "returns": {
        "shape": "n_samples, n_classes",
        "type": "array",
        "name": "C",
        "description": "Decision function values related to each class, per sample. In the two-class case, the shape is [n_samples,], giving the log likelihood ratio of the positive class. '"
      },
      "description": "'Apply decision function to an array of samples.\n",
      "parameters": [
        {
          "shape": "n_samples, n_features",
          "type": "array-like",
          "name": "X",
          "description": "Array of samples (test vectors). "
        }
      ],
      "name": "decision_function"
    },
    {
      "id": "sklearn.discriminant_analysis.QuadraticDiscriminantAnalysis.fit",
      "description": "'Fit the model according to the given training data and parameters.\n\n.. versionchanged:: 0.17\nDeprecated *store_covariance* have been moved to main constructor.\n\n.. versionchanged:: 0.17\nDeprecated *tol* have been moved to main constructor.\n",
      "parameters": [
        {
          "shape": "n_samples, n_features",
          "type": "array-like",
          "name": "X",
          "description": "Training vector, where n_samples in the number of samples and n_features is the number of features. "
        },
        {
          "shape": "n_samples",
          "type": "array",
          "name": "y",
          "description": "Target values (integers) '"
        }
      ],
      "name": "fit"
    },
    {
      "id": "sklearn.discriminant_analysis.QuadraticDiscriminantAnalysis.get_params",
      "returns": {
        "type": "mapping",
        "name": "params",
        "description": "Parameter names mapped to their values. '"
      },
      "description": "'Get parameters for this estimator.\n",
      "parameters": [
        {
          "type": "boolean",
          "optional": "true",
          "name": "deep",
          "description": "If True, will return the parameters for this estimator and contained subobjects that are estimators. "
        }
      ],
      "name": "get_params"
    },
    {
      "id": "sklearn.discriminant_analysis.QuadraticDiscriminantAnalysis.predict",
      "returns": {
        "shape": "n_samples",
        "type": "array",
        "name": "C",
        "description": "'"
      },
      "description": "'Perform classification on an array of test vectors X.\n\nThe predicted class C for each sample in X is returned.\n",
      "parameters": [
        {
          "shape": "n_samples, n_features",
          "type": "array-like",
          "name": "X",
          "description": ""
        }
      ],
      "name": "predict"
    },
    {
      "id": "sklearn.discriminant_analysis.QuadraticDiscriminantAnalysis.predict_log_proba",
      "returns": {
        "shape": "n_samples, n_classes",
        "type": "array",
        "name": "C",
        "description": "Posterior log-probabilities of classification per class. '"
      },
      "description": "'Return posterior probabilities of classification.\n",
      "parameters": [
        {
          "shape": "n_samples, n_features",
          "type": "array-like",
          "name": "X",
          "description": "Array of samples/test vectors. "
        }
      ],
      "name": "predict_log_proba"
    },
    {
      "id": "sklearn.discriminant_analysis.QuadraticDiscriminantAnalysis.predict_proba",
      "returns": {
        "shape": "n_samples, n_classes",
        "type": "array",
        "name": "C",
        "description": "Posterior probabilities of classification per class. '"
      },
      "description": "'Return posterior probabilities of classification.\n",
      "parameters": [
        {
          "shape": "n_samples, n_features",
          "type": "array-like",
          "name": "X",
          "description": "Array of samples/test vectors. "
        }
      ],
      "name": "predict_proba"
    },
    {
      "id": "sklearn.discriminant_analysis.QuadraticDiscriminantAnalysis.score",
      "returns": {
        "type": "float",
        "name": "score",
        "description": "Mean accuracy of self.predict(X) wrt. y.  '"
      },
      "description": "'Returns the mean accuracy on the given test data and labels.\n\nIn multi-label classification, this is the subset accuracy\nwhich is a harsh metric since you require for each sample that\neach label set be correctly predicted.\n",
      "parameters": [
        {
          "shape": "n_samples, n_features",
          "type": "array-like",
          "name": "X",
          "description": "Test samples. "
        },
        {
          "shape": "n_samples",
          "type": "array-like",
          "name": "y",
          "description": "True labels for X. "
        },
        {
          "type": "array-like",
          "shape": "n_samples",
          "optional": "true",
          "name": "sample_weight",
          "description": "Sample weights. "
        }
      ],
      "name": "score"
    },
    {
      "id": "sklearn.discriminant_analysis.QuadraticDiscriminantAnalysis.set_params",
      "returns": {
        "name": "self",
        "description": "\""
      },
      "description": "\"Set the parameters of this estimator.\n\nThe method works on simple estimators as well as on nested objects\n(such as pipelines). The latter have parameters of the form\n``<component>__<parameter>`` so that it's possible to update each\ncomponent of a nested object.\n",
      "parameters": [],
      "name": "set_params"
    }
  ],
  "common_name_unanalyzed": "Quadratic Discriminant Analysis",
  "schema_version": 1.0,
  "languages": [
    "python2.7"
  ],
  "version": "0.18.1",
  "build": [
    {
      "type": "pip",
      "package": "scikit-learn"
    }
  ],
  "handles_multiclass": true,
  "description": "\"\nQuadratic Discriminant Analysis\n\nA classifier with a quadratic decision boundary, generated\nby fitting class conditional densities to the data\nand using Bayes' rule.\n\nThe model fits a Gaussian density to each class.\n\n.. versionadded:: 0.17\n*QuadraticDiscriminantAnalysis*\n\nRead more in the :ref:`User Guide <lda_qda>`.\n",
  "tags": [
    "discriminant_analysis"
  ],
  "learning_type": [
    "supervised"
  ],
  "task_type": [
    "modeling"
  ],
  "output_type": [
    "PREDICTIONS"
  ],
  "source_code": "https://github.com/scikit-learn/scikit-learn/blob/0.18.X/sklearn/discriminant_analysis.py#L549",
  "category_unanalyzed": "discriminant_analysis",
  "name": "sklearn.discriminant_analysis.QuadraticDiscriminantAnalysis",
  "handles_multilabel": true,
  "is_deterministic": true,
  "team": "jpl",
  "attributes": [
    {
      "shape": "n_features, n_features",
      "type": "list",
      "name": "covariance_",
      "description": "Covariance matrices of each class. "
    },
    {
      "shape": "n_classes, n_features",
      "type": "array-like",
      "name": "means_",
      "description": "Class means. "
    },
    {
      "shape": "n_classes",
      "type": "array-like",
      "name": "priors_",
      "description": "Class priors (sum to 1). "
    },
    {
      "type": "list",
      "name": "rotations_",
      "description": "For each class k an array of shape [n_features, n_k], with ``n_k = min(n_features, number of elements in class k)`` It is the rotation of the Gaussian distribution, i.e. its principal axis. "
    },
    {
      "type": "list",
      "name": "scalings_",
      "description": "For each class k an array of shape [n_k]. It contains the scaling of the Gaussian distributions along its principal axes, i.e. the variance in the rotated coordinate system. "
    }
  ]
}
