{
  "is_class": true, 
  "library": "sklearn", 
  "compute_resources": {}, 
  "common_name": "SVR", 
  "id": "f5a398d5-3454-3491-bc98-6a1b81cfc257", 
  "category": "svm.classes", 
  "source_code_unanalyzed": "https://github.com/scikit-learn/scikit-learn/blob/0.18.X/sklearn/svm/classes.py#L696", 
  "parameters": [
    {
      "default": "1.0", 
      "type": "float", 
      "optional": "true", 
      "name": "C", 
      "description": "Penalty parameter C of the error term. "
    }, 
    {
      "default": "0.1", 
      "type": "float", 
      "optional": "true", 
      "name": "epsilon", 
      "description": "Epsilon in the epsilon-SVR model. It specifies the epsilon-tube within which no penalty is associated in the training loss function with points predicted within a distance epsilon from the actual value. "
    }, 
    {
      "default": "'rbf'", 
      "type": "string", 
      "optional": "true", 
      "name": "kernel", 
      "description": "Specifies the kernel type to be used in the algorithm. It must be one of 'linear', 'poly', 'rbf', 'sigmoid', 'precomputed' or a callable. If none is given, 'rbf' will be used. If a callable is given it is used to precompute the kernel matrix. "
    }, 
    {
      "default": "3", 
      "type": "int", 
      "optional": "true", 
      "name": "degree", 
      "description": "Degree of the polynomial kernel function ('poly'). Ignored by all other kernels. "
    }, 
    {
      "default": "'auto'", 
      "type": "float", 
      "optional": "true", 
      "name": "gamma", 
      "description": "Kernel coefficient for 'rbf', 'poly' and 'sigmoid'. If gamma is 'auto' then 1/n_features will be used instead.  coef0 : float, optional (default=0.0) Independent term in kernel function. It is only significant in 'poly' and 'sigmoid'. "
    }, 
    {
      "default": "True", 
      "type": "boolean", 
      "optional": "true", 
      "name": "shrinking", 
      "description": "Whether to use the shrinking heuristic. "
    }, 
    {
      "default": "1e-3", 
      "type": "float", 
      "optional": "true", 
      "name": "tol", 
      "description": "Tolerance for stopping criterion. "
    }, 
    {
      "type": "float", 
      "optional": "true", 
      "name": "cache_size", 
      "description": "Specify the size of the kernel cache (in MB). "
    }, 
    {
      "type": "bool", 
      "name": "verbose", 
      "description": "Enable verbose output. Note that this setting takes advantage of a per-process runtime setting in libsvm that, if enabled, may not work properly in a multithreaded context. "
    }, 
    {
      "default": "-1", 
      "type": "int", 
      "optional": "true", 
      "name": "max_iter", 
      "description": "Hard limit on iterations within solver, or -1 for no limit. "
    }
  ], 
  "tags": [
    "svm", 
    "classes"
  ], 
  "common_name_unanalyzed": "SVR", 
  "schema_version": 1.0, 
  "languages": [
    "python2.7"
  ], 
  "version": "0.18.1", 
  "build": [
    {
      "type": "pip", 
      "package": "scikit-learn"
    }
  ], 
  "description": "\"Epsilon-Support Vector Regression.\n\nThe free parameters in the model are C and epsilon.\n\nThe implementation is based on libsvm.\n\nRead more in the :ref:`User Guide <svm_regression>`.\n", 
  "methods_available": [
    {
      "id": "sklearn.svm.classes.SVR.decision_function", 
      "returns": {
        "shape": "n_samples, n_class * (n_class-1", 
        "type": "array-like", 
        "name": "X", 
        "description": "Returns the decision function of the sample for each class in the model. '"
      }, 
      "description": "'DEPRECATED:  and will be removed in 0.19\n\nDistance of the samples X to the separating hyperplane.\n", 
      "parameters": [
        {
          "shape": "n_samples, n_features", 
          "type": "array-like", 
          "name": "X", 
          "description": "For kernel=\"precomputed\", the expected shape of X is [n_samples_test, n_samples_train]. "
        }
      ], 
      "name": "decision_function"
    }, 
    {
      "id": "sklearn.svm.classes.SVR.fit", 
      "returns": {
        "type": "object", 
        "name": "self", 
        "description": "Returns self.  Notes ------ If X and y are not C-ordered and contiguous arrays of np.float64 and X is not a scipy.sparse.csr_matrix, X and/or y may be copied.  If X is a dense array, then the other methods will not support sparse matrices as input. '"
      }, 
      "description": "'Fit the SVM model according to the given training data.\n", 
      "parameters": [
        {
          "shape": "n_samples, n_features", 
          "type": "array-like, sparse matrix", 
          "name": "X", 
          "description": "Training vectors, where n_samples is the number of samples and n_features is the number of features. For kernel=\"precomputed\", the expected shape of X is (n_samples, n_samples). "
        }, 
        {
          "shape": "n_samples,", 
          "type": "array-like", 
          "name": "y", 
          "description": "Target values (class labels in classification, real numbers in regression) "
        }, 
        {
          "shape": "n_samples,", 
          "type": "array-like", 
          "name": "sample_weight", 
          "description": "Per-sample weights. Rescale C per sample. Higher weights force the classifier to put more emphasis on these points. "
        }
      ], 
      "name": "fit"
    }, 
    {
      "id": "sklearn.svm.classes.SVR.get_params", 
      "returns": {
        "type": "mapping", 
        "name": "params", 
        "description": "Parameter names mapped to their values. '"
      }, 
      "description": "'Get parameters for this estimator.\n", 
      "parameters": [
        {
          "type": "boolean", 
          "optional": "true", 
          "name": "deep", 
          "description": "If True, will return the parameters for this estimator and contained subobjects that are estimators. "
        }
      ], 
      "name": "get_params"
    }, 
    {
      "id": "sklearn.svm.classes.SVR.predict", 
      "returns": {
        "shape": "n_samples,", 
        "type": "array", 
        "name": "y_pred", 
        "description": "'"
      }, 
      "description": "'Perform regression on samples in X.\n\nFor an one-class model, +1 or -1 is returned.\n", 
      "parameters": [
        {
          "shape": "n_samples, n_features", 
          "type": "array-like, sparse matrix", 
          "name": "X", 
          "description": "For kernel=\"precomputed\", the expected shape of X is (n_samples_test, n_samples_train). "
        }
      ], 
      "name": "predict"
    }, 
    {
      "id": "sklearn.svm.classes.SVR.score", 
      "returns": {
        "type": "float", 
        "name": "score", 
        "description": "R^2 of self.predict(X) wrt. y. '"
      }, 
      "description": "'Returns the coefficient of determination R^2 of the prediction.\n\nThe coefficient R^2 is defined as (1 - u/v), where u is the regression\nsum of squares ((y_true - y_pred) ** 2).sum() and v is the residual\nsum of squares ((y_true - y_true.mean()) ** 2).sum().\nBest possible score is 1.0 and it can be negative (because the\nmodel can be arbitrarily worse). A constant model that always\npredicts the expected value of y, disregarding the input features,\nwould get a R^2 score of 0.0.\n", 
      "parameters": [
        {
          "shape": "n_samples, n_features", 
          "type": "array-like", 
          "name": "X", 
          "description": "Test samples. "
        }, 
        {
          "shape": "n_samples", 
          "type": "array-like", 
          "name": "y", 
          "description": "True values for X. "
        }, 
        {
          "type": "array-like", 
          "shape": "n_samples", 
          "optional": "true", 
          "name": "sample_weight", 
          "description": "Sample weights. "
        }
      ], 
      "name": "score"
    }, 
    {
      "id": "sklearn.svm.classes.SVR.set_params", 
      "returns": {
        "name": "self", 
        "description": "\""
      }, 
      "description": "\"Set the parameters of this estimator.\n\nThe method works on simple estimators as well as on nested objects\n(such as pipelines). The latter have parameters of the form\n``<component>__<parameter>`` so that it's possible to update each\ncomponent of a nested object.\n", 
      "parameters": [], 
      "name": "set_params"
    }
  ], 
  "learning_type": [
    "supervised"
  ], 
  "task_type": [
    "modeling"
  ], 
  "source_code": "https://github.com/scikit-learn/scikit-learn/blob/0.18.X/sklearn/svm/classes.py#L696", 
  "category_unanalyzed": "svm.classes", 
  "name": "sklearn.svm.classes.SVR", 
  "team": "jpl", 
  "attributes": [
    {
      "shape": "n_SV", 
      "type": "array-like", 
      "name": "support_", 
      "description": "Indices of support vectors. "
    }, 
    {
      "shape": "nSV, n_features", 
      "type": "array-like", 
      "name": "support_vectors_", 
      "description": "Support vectors. "
    }, 
    {
      "shape": "1, n_SV", 
      "type": "array", 
      "name": "dual_coef_", 
      "description": "Coefficients of the support vector in the decision function. "
    }, 
    {
      "shape": "1, n_features", 
      "type": "array", 
      "name": "coef_", 
      "description": "Weights assigned to the features (coefficients in the primal problem). This is only available in the case of a linear kernel.  `coef_` is readonly property derived from `dual_coef_` and `support_vectors_`. "
    }, 
    {
      "shape": "1", 
      "type": "array", 
      "name": "intercept_", 
      "description": "Constants in decision function. "
    }
  ]
}
